Code/simulation/qsim/LogicalStep_Lab4.msim.vcd
$comment
	File created using the following command:
		vcd file LogicalStep_Lab4.msim.vcd -direction
$end
$date
	Wed Jul 20 12:10:17 2022
$end
$version
	ModelSim Version 10.4b
$end
$timescale
	1ps
$end

$scope module LogicalStep_Lab4_top_vlg_vec_tst $end
$var reg 1 ! Clkin_50 $end
$var reg 4 " pb_n [3:0] $end
$var reg 8 # sw [7:0] $end
$var wire 1 $ leds [7] $end
$var wire 1 % leds [6] $end
$var wire 1 & leds [5] $end
$var wire 1 ' leds [4] $end
$var wire 1 ( leds [3] $end
$var wire 1 ) leds [2] $end
$var wire 1 * leds [1] $end
$var wire 1 + leds [0] $end
$var wire 1 , seg7_char1 $end
$var wire 1 - seg7_char2 $end
$var wire 1 . seg7_data [6] $end
$var wire 1 / seg7_data [5] $end
$var wire 1 0 seg7_data [4] $end
$var wire 1 1 seg7_data [3] $end
$var wire 1 2 seg7_data [2] $end
$var wire 1 3 seg7_data [1] $end
$var wire 1 4 seg7_data [0] $end
$var wire 1 5 xPOS [3] $end
$var wire 1 6 xPOS [2] $end
$var wire 1 7 xPOS [1] $end
$var wire 1 8 xPOS [0] $end
$var wire 1 9 xreg [3] $end
$var wire 1 : xreg [2] $end
$var wire 1 ; xreg [1] $end
$var wire 1 < xreg [0] $end
$var wire 1 = yPOS [3] $end
$var wire 1 > yPOS [2] $end
$var wire 1 ? yPOS [1] $end
$var wire 1 @ yPOS [0] $end
$var wire 1 A yreg [3] $end
$var wire 1 B yreg [2] $end
$var wire 1 C yreg [1] $end
$var wire 1 D yreg [0] $end

$scope module i1 $end
$var wire 1 E gnd $end
$var wire 1 F vcc $end
$var wire 1 G unknown $end
$var tri1 1 H devclrn $end
$var tri1 1 I devpor $end
$var tri1 1 J devoe $end
$var wire 1 K ~QUARTUS_CREATED_GND~I_combout $end
$var wire 1 L ~QUARTUS_CREATED_UNVM~~busy $end
$var wire 1 M ~ALTERA_TMS~~ibuf_o $end
$var wire 1 N ~ALTERA_TCK~~ibuf_o $end
$var wire 1 O ~ALTERA_TDI~~ibuf_o $end
$var wire 1 P ~QUARTUS_CREATED_ADC1~~eoc $end
$var wire 1 Q Clkin_50~input_o $end
$var wire 1 R sw[0]~input_o $end
$var wire 1 S Clkin_50~inputclkctrl_outclk $end
$var wire 1 T pb_n[3]~input_o $end
$var wire 1 U inst1|stages_pb3[0]~0_combout $end
$var wire 1 V inst9|Selector2~2_combout $end
$var wire 1 W sw[4]~input_o $end
$var wire 1 X pb_n[2]~input_o $end
$var wire 1 Y inst1|stages_pb2[0]~0_combout $end
$var wire 1 Z inst9|clk_en_X~4_combout $end
$var wire 1 [ sw[6]~input_o $end
$var wire 1 \ sw[7]~input_o $end
$var wire 1 ] inst3|ud_bin_counter[1]~5_cout $end
$var wire 1 ^ inst3|ud_bin_counter[1]~6_combout $end
$var wire 1 _ inst9|clk_en_X~5_combout $end
$var wire 1 ` inst3|ud_bin_counter[1]~7 $end
$var wire 1 a inst3|ud_bin_counter[2]~8_combout $end
$var wire 1 b inst7|AGTB~0_combout $end
$var wire 1 c sw[5]~input_o $end
$var wire 1 d inst7|AGTB~2_combout $end
$var wire 1 e inst9|Decoder_Section~0_combout $end
$var wire 1 f inst7|ALTB~0_combout $end
$var wire 1 g inst7|ALTB~1_combout $end
$var wire 1 h inst9|extender_en~0_combout $end
$var wire 1 i inst9|up_down_X~0_combout $end
$var wire 1 j inst9|up_down_X~combout $end
$var wire 1 k inst3|process_0~0_combout $end
$var wire 1 l inst3|ud_bin_counter[2]~9 $end
$var wire 1 m inst3|ud_bin_counter[3]~10_combout $end
$var wire 1 n inst7|AGTB~1_combout $end
$var wire 1 o inst7|AGTB~3_combout $end
$var wire 1 p inst3|ud_bin_counter[0]~3_combout $end
$var wire 1 q inst7|AEQB~0_combout $end
$var wire 1 r inst7|AEQB~combout $end
$var wire 1 s inst9|Selector1~0_combout $end
$var wire 1 t inst2|sreg~3_combout $end
$var wire 1 u inst10|clk_en~combout $end
$var wire 1 v inst2|sreg~2_combout $end
$var wire 1 w inst2|sreg~1_combout $end
$var wire 1 x inst2|sreg~0_combout $end
$var wire 1 y inst10|Selector3~0_combout $end
$var wire 1 z pb_n[1]~input_o $end
$var wire 1 { inst1|stages_pb1[0]~0_combout $end
$var wire 1 | inst10|Selector0~0_combout $end
$var wire 1 } inst10|Selector1~0_combout $end
$var wire 1 ~ inst10|Selector1~1_combout $end
$var wire 1 !! inst10|Selector0~1_combout $end
$var wire 1 "! inst10|current_state.extend_state~q $end
$var wire 1 #! inst10|Selector1~2_combout $end
$var wire 1 $! inst10|current_state.full_extend_state~q $end
$var wire 1 %! inst10|Selector2~0_combout $end
$var wire 1 &! inst10|Selector5~0_combout $end
$var wire 1 '! inst10|current_state.push_retraction_state~q $end
$var wire 1 (! inst10|Selector3~1_combout $end
$var wire 1 )! inst10|Selector2~1_combout $end
$var wire 1 *! inst10|current_state.retract_state~q $end
$var wire 1 +! inst10|Selector3~2_combout $end
$var wire 1 ,! inst10|current_state.full_retract_state~q $end
$var wire 1 -! inst9|Selector2~3_combout $end
$var wire 1 .! inst9|next_state.flashing_error_state~0_combout $end
$var wire 1 /! inst9|current_state.flashing_error_state~q $end
$var wire 1 0! inst9|Selector2~4_combout $end
$var wire 1 1! inst9|current_state.error_state~q $end
$var wire 1 2! inst9|Capture_XY~0_combout $end
$var wire 1 3! inst9|Selector1~1_combout $end
$var wire 1 4! inst9|current_state.release_state~q $end
$var wire 1 5! sw[2]~input_o $end
$var wire 1 6! sw[3]~input_o $end
$var wire 1 7! inst4|ud_bin_counter[1]~5_cout $end
$var wire 1 8! inst4|ud_bin_counter[1]~6_combout $end
$var wire 1 9! inst9|clk_en_Y~4_combout $end
$var wire 1 :! inst4|ud_bin_counter[1]~7 $end
$var wire 1 ;! inst4|ud_bin_counter[2]~8_combout $end
$var wire 1 <! inst8|AGTB~0_combout $end
$var wire 1 =! sw[1]~input_o $end
$var wire 1 >! inst8|AGTB~2_combout $end
$var wire 1 ?! inst9|Decoder_Section~1_combout $end
$var wire 1 @! inst8|ALTB~0_combout $end
$var wire 1 A! inst8|ALTB~1_combout $end
$var wire 1 B! inst9|extender_en~1_combout $end
$var wire 1 C! inst9|up_down_Y~0_combout $end
$var wire 1 D! inst9|up_down_Y~combout $end
$var wire 1 E! inst4|process_0~0_combout $end
$var wire 1 F! inst4|ud_bin_counter[2]~9 $end
$var wire 1 G! inst4|ud_bin_counter[3]~10_combout $end
$var wire 1 H! inst8|AGTB~1_combout $end
$var wire 1 I! inst8|AGTB~3_combout $end
$var wire 1 J! inst9|Selector4~0_combout $end
$var wire 1 K! inst9|Selector4~1_combout $end
$var wire 1 L! inst9|extender_en~combout $end
$var wire 1 M! inst10|Selector4~0_combout $end
$var wire 1 N! inst10|Selector4~1_combout $end
$var wire 1 O! inst10|current_state.push_extension_state~q $end
$var wire 1 P! inst10|extender_out~0_combout $end
$var wire 1 Q! inst9|Selector0~0_combout $end
$var wire 1 R! inst9|current_state.original_state~0_combout $end
$var wire 1 S! inst9|current_state.original_state~q $end
$var wire 1 T! inst9|Selector0~1_combout $end
$var wire 1 U! inst9|current_state.press_state~q $end
$var wire 1 V! inst9|Selector3~0_combout $end
$var wire 1 W! inst9|Selector3~1_combout $end
$var wire 1 X! inst8|AEQB~0_combout $end
$var wire 1 Y! inst8|AEQB~combout $end
$var wire 1 Z! inst4|ud_bin_counter[0]~3_combout $end
$var wire 1 [! inst13|Mux5~0_combout $end
$var wire 1 \! inst12|Mux5~0_combout $end
$var wire 1 ]! inst14|clk_proc:COUNT[0]~0_combout $end
$var wire 1 ^! inst14|clk_proc:COUNT[0]~q $end
$var wire 1 _! inst14|clk_proc:COUNT[1]~1_combout $end
$var wire 1 `! inst14|clk_proc:COUNT[1]~q $end
$var wire 1 a! inst14|clk_proc:COUNT[1]~2 $end
$var wire 1 b! inst14|clk_proc:COUNT[2]~1_combout $end
$var wire 1 c! inst14|clk_proc:COUNT[2]~q $end
$var wire 1 d! inst14|clk_proc:COUNT[2]~2 $end
$var wire 1 e! inst14|clk_proc:COUNT[3]~1_combout $end
$var wire 1 f! inst14|clk_proc:COUNT[3]~q $end
$var wire 1 g! inst14|clk_proc:COUNT[3]~2 $end
$var wire 1 h! inst14|clk_proc:COUNT[4]~1_combout $end
$var wire 1 i! inst14|clk_proc:COUNT[4]~q $end
$var wire 1 j! inst14|clk_proc:COUNT[4]~2 $end
$var wire 1 k! inst14|clk_proc:COUNT[5]~1_combout $end
$var wire 1 l! inst14|clk_proc:COUNT[5]~q $end
$var wire 1 m! inst14|clk_proc:COUNT[5]~2 $end
$var wire 1 n! inst14|clk_proc:COUNT[6]~1_combout $end
$var wire 1 o! inst14|clk_proc:COUNT[6]~q $end
$var wire 1 p! inst14|clk_proc:COUNT[6]~2 $end
$var wire 1 q! inst14|clk_proc:COUNT[7]~1_combout $end
$var wire 1 r! inst14|clk_proc:COUNT[7]~q $end
$var wire 1 s! inst14|clk_proc:COUNT[7]~2 $end
$var wire 1 t! inst14|clk_proc:COUNT[8]~1_combout $end
$var wire 1 u! inst14|clk_proc:COUNT[8]~q $end
$var wire 1 v! inst14|clk_proc:COUNT[8]~2 $end
$var wire 1 w! inst14|clk_proc:COUNT[9]~1_combout $end
$var wire 1 x! inst14|clk_proc:COUNT[9]~q $end
$var wire 1 y! inst14|clk_proc:COUNT[9]~2 $end
$var wire 1 z! inst14|clk_proc:COUNT[10]~1_combout $end
$var wire 1 {! inst14|clk_proc:COUNT[10]~q $end
$var wire 1 |! inst14|DOUT_TEMP[1]~0_combout $end
$var wire 1 }! inst13|Mux1~0_combout $end
$var wire 1 ~! inst12|Mux1~0_combout $end
$var wire 1 !" inst14|DOUT_TEMP[5]~1_combout $end
$var wire 1 "" inst13|Mux0~0_combout $end
$var wire 1 #" inst12|Mux0~0_combout $end
$var wire 1 $" inst14|DOUT_TEMP[6]~2_combout $end
$var wire 1 %" pb_n[0]~input_o $end
$var wire 1 &" inst1|stages_pb0[0]~0_combout $end
$var wire 1 '" inst11|Transition_Section~1_combout $end
$var wire 1 (" inst11|Transition_Section~0_combout $end
$var wire 1 )" inst11|Selector2~0_combout $end
$var wire 1 *" inst11|current_state.release_open_state~q $end
$var wire 1 +" inst11|Selector1~0_combout $end
$var wire 1 ," inst11|current_state.press_close_state~q $end
$var wire 1 -" inst11|Selector3~0_combout $end
$var wire 1 ." inst11|current_state.release_close_state~q $end
$var wire 1 /" inst11|Selector0~0_combout $end
$var wire 1 0" inst11|current_state.press_open_state~q $end
$var wire 1 1" inst11|grappler_on~combout $end
$var wire 1 2" inst13|Mux6~0_combout $end
$var wire 1 3" inst12|Mux6~0_combout $end
$var wire 1 4" inst14|DOUT[0]~0_combout $end
$var wire 1 5" inst13|Mux4~0_combout $end
$var wire 1 6" inst12|Mux4~0_combout $end
$var wire 1 7" inst14|DOUT[2]~2_combout $end
$var wire 1 8" inst13|Mux3~0_combout $end
$var wire 1 9" inst12|Mux3~0_combout $end
$var wire 1 :" inst14|DOUT[3]~3_combout $end
$var wire 1 ;" inst13|Mux2~0_combout $end
$var wire 1 <" inst12|Mux2~0_combout $end
$var wire 1 =" inst14|DOUT[4]~4_combout $end
$var wire 1 >" inst3|ud_bin_counter [3] $end
$var wire 1 ?" inst3|ud_bin_counter [2] $end
$var wire 1 @" inst3|ud_bin_counter [1] $end
$var wire 1 A" inst3|ud_bin_counter [0] $end
$var wire 1 B" inst1|stages_pb3 [1] $end
$var wire 1 C" inst1|stages_pb3 [0] $end
$var wire 1 D" inst2|sreg [3] $end
$var wire 1 E" inst2|sreg [2] $end
$var wire 1 F" inst2|sreg [1] $end
$var wire 1 G" inst2|sreg [0] $end
$var wire 1 H" inst4|ud_bin_counter [3] $end
$var wire 1 I" inst4|ud_bin_counter [2] $end
$var wire 1 J" inst4|ud_bin_counter [1] $end
$var wire 1 K" inst4|ud_bin_counter [0] $end
$var wire 1 L" inst1|stages_pb0 [1] $end
$var wire 1 M" inst1|stages_pb0 [0] $end
$var wire 1 N" inst5|reg [3] $end
$var wire 1 O" inst5|reg [2] $end
$var wire 1 P" inst5|reg [1] $end
$var wire 1 Q" inst5|reg [0] $end
$var wire 1 R" inst6|reg [3] $end
$var wire 1 S" inst6|reg [2] $end
$var wire 1 T" inst6|reg [1] $end
$var wire 1 U" inst6|reg [0] $end
$var wire 1 V" inst1|stages_pb2 [1] $end
$var wire 1 W" inst1|stages_pb2 [0] $end
$var wire 1 X" inst1|stages_pb1 [1] $end
$var wire 1 Y" inst1|stages_pb1 [0] $end
$upscope $end
$upscope $end
$enddefinitions $end
#0
$dumpvars
0!
b111 "
b11100110 #
0+
0*
0)
0(
0'
0&
0%
0$
1,
0-
14
z3
12
11
10
z/
0.
08
07
06
05
0<
0;
0:
09
0@
0?
0>
0=
0D
0C
0B
0A
0E
1F
xG
1H
1I
1J
0K
zL
zM
zN
zO
zP
0Q
0R
0S
0T
1U
0V
0W
1X
0Y
0Z
1[
1\
0]
1^
0_
1`
1a
1b
1c
0d
0e
0f
0g
0h
0i
xj
0k
0l
1m
0n
0o
0p
0q
0r
0s
0t
0u
0v
0w
0x
1y
1z
0{
1|
0}
0~
0!!
0"!
0#!
0$!
0%!
0&!
0'!
1(!
0)!
0*!
0+!
0,!
0-!
0.!
0/!
00!
01!
02!
03!
04!
15!
06!
07!
18!
09!
1:!
1;!
1<!
1=!
0>!
0?!
0@!
0A!
0B!
0C!
xD!
0E!
0F!
1G!
0H!
0I!
1J!
1K!
1L!
0M!
0N!
0O!
1P!
0Q!
0R!
0S!
0T!
0U!
0V!
0W!
0X!
0Y!
0Z!
0[!
0\!
1]!
0^!
0_!
0`!
0a!
0b!
0c!
1d!
0e!
0f!
0g!
0h!
0i!
1j!
0k!
0l!
0m!
0n!
0o!
1p!
0q!
0r!
0s!
0t!
0u!
1v!
0w!
0x!
0y!
0z!
0{!
1|!
0}!
0~!
1!"
0""
0#"
0$"
1%"
0&"
0'"
0("
0)"
0*"
0+"
0,"
0-"
0."
0/"
00"
01"
02"
03"
04"
05"
06"
07"
08"
09"
0:"
0;"
0<"
0="
0A"
0@"
0?"
0>"
0C"
0B"
0G"
0F"
0E"
0D"
0K"
0J"
0I"
0H"
0M"
0L"
0Q"
0P"
0O"
0N"
0U"
0T"
0S"
0R"
0W"
0V"
0Y"
0X"
$end
#5000
1!
1Q
1S
1^!
1C"
1_!
0]!
#10000
0!
0Q
0S
#15000
1!
1Q
1S
1`!
0^!
1B"
1]!
#20000
b1111 "
0!
1T
0Q
0S
0U
#25000
1!
1Q
1S
1^!
0C"
1a!
0_!
0]!
1b!
#30000
b1011 "
0!
0X
0Q
0S
1Y
#35000
1!
1Q
1S
1c!
0`!
0^!
0B"
1W"
0d!
0a!
0b!
1]!
1d!
1e!
1b!
0e!
#40000
0!
0Q
0S
#45000
1!
1Q
1S
1^!
1V"
1_!
0]!
1T!
1R!
#50000
b1111 "
0!
1X
0Q
0S
0Y
#55000
1!
1Q
1S
1`!
0^!
1U!
1S!
0W"
1W!
1V
1]!
0T!
1s
1T!
#60000
0!
0Q
0S
#65000
1!
1Q
1S
1^!
0V"
1T"
1S"
1P"
1N"
1O"
1:
19
1;
1B
1C
1a!
1X!
1A!
1@!
0<!
1q
1g
1f
0b
0_!
0]!
0T!
13!
0d!
1Y!
1B!
1r
1h
0b!
0J!
1e!
#70000
0!
0Q
0S
#75000
1!
1Q
1S
14!
1f!
0c!
0`!
0^!
0U!
1V!
0K!
1C!
19!
1i
1_
1Z
1g!
1d!
0a!
0W!
0e!
1b!
1]!
0L!
1D!
1j
xE!
xk
0g!
1Z!
1p
1h!
1e!
0b!
0(!
0|
1E!
1k
xG!
x;!
x8!
xm
xa
x^
0h!
0G!
0;!
08!
0m
0a
0^
#80000
0!
0Q
0S
#85000
1!
1Q
1S
1^!
1K"
1A"
18
1@
1;"
18"
12"
1}!
17!
1<"
19"
13"
1~!
1]
1_!
0]!
0Z!
0p
1="
1:"
14"
0!"
18!
1^
0/
04
01
00
#90000
0!
0Q
0S
#95000
1!
1Q
1S
1`!
0^!
0K"
1J"
0A"
1@"
17
08
1?
0@
0;"
08"
15"
02"
1""
0X!
0A!
07!
0:!
0<"
09"
16"
03"
1#"
0q
0g
0]
0`
1]!
1Z!
08!
1p
0^
0="
0:"
17"
04"
1:!
1`
1$"
18!
1;!
1^
1a
z.
14
02
11
10
0;!
0a
#100000
0!
0Q
0S
#105000
1!
1Q
1S
1^!
1K"
1A"
18
1@
1a!
1;"
05"
1X!
1>!
17!
1<"
06"
1q
1d
1]
0_!
0]!
0Z!
0p
1="
07"
0:!
0`
1b!
08!
0^
12
00
1;!
1a
#110000
0!
0Q
0S
#115000
1!
1Q
1S
1c!
0`!
0^!
0K"
1I"
0J"
0A"
1?"
0@"
07
16
08
0?
1>
0@
0d!
0a!
18"
12"
0}!
1A!
0>!
07!
0@!
1<!
1F!
1:!
19"
13"
0~!
1g
0d
0]
1l
1`
0b!
1]!
1Z!
0;!
18!
1p
0a
1^
1g!
1d!
1:"
14"
0F!
0l
0e!
1b!
1!"
08!
1G!
1;!
0^
1m
1a
z/
04
01
0g!
1h!
1e!
0G!
0m
0h!
#120000
0!
0Q
0S
#125000
1!
1Q
1S
1^!
1K"
1A"
18
1@
08"
02"
1[!
17!
09"
03"
1\!
1]
1_!
0]!
0Z!
0p
0:"
04"
0|!
18!
1^
03
14
11
#130000
0!
0Q
0S
#135000
1!
1Q
1S
1`!
0^!
0K"
1J"
0A"
1@"
17
08
1?
0@
0;"
0X!
0A!
07!
0:!
0<"
0q
0g
0]
0`
1]!
1Z!
08!
1p
0^
0="
0Y!
0B!
1:!
1F!
1`
1l
18!
0;!
1^
0a
10
0E!
09!
0C!
0F!
0l
0Z!
1;!
1G!
1a
1m
1F!
0:!
0;!
08!
0m
0G!
1;!
#140000
0!
0Q
0S
#145000
1!
1Q
1S
1^!
1A"
18
1a!
1<"
19"
0#"
1~!
0\!
1q
1d
1]
0_!
0]!
0p
0d!
1="
1:"
0`
0b!
0$"
0!"
1|!
0^
z3
0/
0.
01
00
1g!
1l
0e!
0a
1h!
1m
#150000
0!
0Q
0S
#155000
1!
1Q
1S
1i!
0f!
0c!
0`!
0^!
0A"
1>"
0?"
0@"
07
06
15
08
0j!
0g!
1d!
0a!
0<"
09"
1#"
0~!
1g
0d
0]
0l
1`
0h!
1e!
1b!
1]!
1p
0m
1a
1^
1j!
0="
0:"
1k!
1h!
0e!
0b!
1$"
1!"
0^
1m
0a
z/
z.
11
10
0k!
#160000
0!
0Q
0S
#165000
1!
1Q
1S
1^!
1A"
18
1<"
1]
1_!
0]!
0p
1="
1^
00
#170000
0!
0Q
0S
#175000
1!
1Q
1S
1`!
0^!
0A"
1@"
17
08
0<"
19"
0q
0g
0]
0`
1]!
1p
0^
0="
1:"
1`
1^
1a
01
10
0a
#180000
0!
0Q
0S
#185000
1!
1Q
1S
1^!
1A"
18
1a!
09"
13"
1\!
1q
1d
1]
0_!
0]!
0p
0:"
14"
0`
1b!
0|!
0^
03
04
11
1a
#190000
0!
0Q
0S
#195000
1!
1Q
1S
1c!
0`!
0^!
0A"
1?"
0@"
07
16
08
0d!
0a!
16"
1~!
1g
0d
0]
0f
1b
1l
1`
0b!
1]!
1p
0a
1^
1d!
17"
0l
1e!
1b!
0!"
0^
0m
1a
0/
02
0e!
1m
#200000
0!
0Q
0S
#205000
1!
1Q
1S
1^!
1A"
18
06"
0\!
1]
1_!
0]!
0p
07"
1|!
1^
z3
12
#210000
b1101 "
0!
0z
0Q
0S
1{
#215000
1!
1Q
1S
1`!
0^!
0A"
1@"
1Y"
17
08
16"
03"
0~!
1\!
0q
0g
0]
0`
1]!
1p
0^
17"
04"
0r
0h
1`
1l
1!"
0|!
1^
0a
03
z/
14
02
0k
0_
1J!
0i
0l
0p
1a
0m
1l
0`
1K!
0a
0^
1L!
1m
1a
1(!
1|
#220000
0!
0Q
0S
#225000
1!
1Q
1S
1^!
1X"
1a!
1M!
0|
0_!
0]!
0d!
0b!
1N!
1+!
1e!
#230000
b1111 "
0!
1z
0Q
0S
0{
#235000
1!
1Q
1S
1f!
0c!
0`!
0^!
1O!
1,!
0Y"
1g!
1d!
0a!
0e!
1b!
1]!
0j!
0g!
0h!
1e!
0b!
1j!
1k!
1h!
0k!
#240000
0!
0Q
0S
#245000
1!
1Q
1S
1^!
0X"
0M!
1|
1_!
0]!
0N!
1!!
#250000
b10100110 #
0!
0Q
0[
0S
#255000
1!
1Q
1S
1`!
0^!
0O!
1"!
0P!
1u
1]!
1t
#260000
0!
0Q
0S
#265000
1!
1Q
1S
1^!
1D"
1&
1a!
0y
0_!
0]!
1v
0(!
0|
1b!
#270000
0!
0Q
0S
#275000
1!
1Q
1S
1c!
0`!
0^!
1E"
1'
0d!
0a!
0b!
1]!
1w
1g!
1d!
0e!
1b!
0j!
0g!
0h!
1e!
1j!
1k!
1h!
0k!
#280000
0!
0Q
0S
#285000
1!
1Q
1S
1^!
1F"
1(
1_!
0]!
1x
#290000
b1110 "
0!
0%"
0Q
0S
1&"
#295000
1!
1Q
1S
1`!
0^!
1M"
1G"
1)
1}
1]!
1%!
1~
1#!
0!!
#300000
0!
0Q
0S
#305000
1!
1Q
1S
1L"
1^!
1$!
0"!
1("
1a!
0u
0_!
0]!
0x
0d!
1+"
1)"
0b!
1g!
0e!
0j!
0h!
1k!
#310000
b1111 "
0!
1%"
0Q
0S
0&"
#315000
1!
1Q
1S
1,"
1*"
1l!
0i!
0f!
0c!
0`!
0^!
0M"
1m!
1j!
0g!
1d!
0a!
0k!
1h!
1e!
1b!
1]!
0m!
1n!
1k!
0h!
0e!
0b!
0n!
#320000
0!
0Q
0S
#325000
1!
1Q
1S
0L"
1^!
0("
1'"
1_!
0]!
1-"
0+"
#330000
0!
0Q
0S
#335000
1!
1Q
1S
1."
0,"
1`!
0^!
11"
1]!
1*
#340000
0!
0Q
0S
#345000
1!
1Q
1S
1^!
1a!
0_!
0]!
1b!
#350000
0!
0Q
0S
#355000
1!
1Q
1S
1c!
0`!
0^!
0d!
0a!
0b!
1]!
1d!
1e!
1b!
0e!
#360000
0!
0Q
0S
#365000
1!
1Q
1S
1^!
1_!
0]!
#370000
0!
0Q
0S
#375000
1!
1Q
1S
1`!
0^!
1]!
#380000
0!
0Q
0S
#385000
1!
1Q
1S
1^!
1a!
0_!
0]!
0d!
0b!
1e!
#390000
b111 "
0!
0T
0Q
0S
1U
#395000
1!
1Q
1S
1f!
0c!
0`!
0^!
1C"
1g!
1d!
0a!
0e!
1b!
1]!
0g!
1h!
1e!
0b!
0h!
#400000
0!
0Q
0S
#405000
1!
1Q
1S
1^!
1B"
1_!
0]!
0$!
0,!
04!
0S!
0*"
0."
0O"
0N"
0@"
0?"
0P"
0>"
0D"
0E"
0F"
0G"
0S"
0J"
0I"
0T"
0C
0>
0?
0B
0)
0(
0'
0&
05
0;
06
07
09
0:
0'"
1P!
0V!
0Z
0V
06"
0#"
0\!
1`
0}
1y
0""
0[!
1:!
0#!
0+!
0R!
0)"
01"
0-"
1^
0a
0m
0v
0w
0t
18!
0;!
0*
0s
07"
0l
0%!
0~
1(!
1|
0F!
0$"
1|!
1a
1;!
z3
0.
12
03!
1m
1G!
#410000
b1111 "
0!
1T
0Q
0S
0U
#415000
1!
1Q
1S
1`!
0^!
0C"
1]!
#420000
0!
0Q
0S
#425000
1!
1Q
1S
1^!
0B"
1a!
0_!
0]!
1b!
#430000
0!
0Q
0S
#435000
1!
1Q
1S
1c!
0`!
0^!
0d!
0a!
0b!
1]!
1g!
1d!
0e!
1b!
0g!
1h!
1e!
0h!
#440000
0!
0Q
0S
#445000
1!
1Q
1S
1^!
1_!
0]!
#450000
0!
0Q
0S
#455000
1!
1Q
1S
1`!
0^!
1]!
#460000
0!
0Q
0S
#465000
1!
1Q
1S
1^!
1a!
0_!
0]!
0d!
0b!
1g!
0e!
1h!
#470000
0!
0Q
0S
#475000
1!
1Q
1S
1i!
0f!
0c!
0`!
0^!
0j!
0g!
1d!
0a!
0h!
1e!
1b!
1]!
1m!
1j!
0k!
1h!
0e!
0b!
0m!
1n!
1k!
0n!
#480000
0!
0Q
0S
#485000
1!
1Q
1S
1^!
1_!
0]!
#490000
0!
0Q
0S
#495000
1!
1Q
1S
1`!
0^!
1]!
#500000
b100110 #
b101110 #
b101111 #
0!
0Q
0\
16!
1R
0S
#505000
1!
1Q
1S
1^!
1a!
0_!
0]!
1b!
#510000
0!
0Q
0S
#515000
1!
1Q
1S
1c!
0`!
0^!
0d!
0a!
0b!
1]!
1d!
1e!
1b!
0e!
#520000
0!
0Q
0S
#525000
1!
1Q
1S
1^!
1_!
0]!
#530000
0!
0Q
0S
#535000
1!
1Q
1S
1`!
0^!
1]!
#540000
0!
0Q
0S
#545000
1!
1Q
1S
1^!
1a!
0_!
0]!
0d!
0b!
1e!
#550000
0!
0Q
0S
#555000
1!
1Q
1S
1f!
0c!
0`!
0^!
1g!
1d!
0a!
0e!
1b!
1]!
0j!
0g!
0h!
1e!
0b!
1m!
1j!
0k!
1h!
0m!
1n!
1k!
0n!
#560000
0!
0Q
0S
#565000
1!
1Q
1S
1^!
1_!
0]!
#570000
0!
0Q
0S
#575000
1!
1Q
1S
1`!
0^!
1]!
#580000
0!
0Q
0S
#585000
1!
1Q
1S
1^!
1a!
0_!
0]!
1b!
#590000
0!
0Q
0S
#595000
1!
1Q
1S
1c!
0`!
0^!
0d!
0a!
0b!
1]!
1g!
1d!
0e!
1b!
0j!
0g!
0h!
1e!
1m!
1j!
0k!
1h!
0m!
1n!
1k!
0n!
#600000
0!
0Q
0S
#605000
1!
1Q
1S
1^!
1_!
0]!
#610000
0!
0Q
0S
#615000
1!
1Q
1S
1`!
0^!
1]!
#620000
0!
0Q
0S
#625000
1!
1Q
1S
1^!
1a!
0_!
0]!
0d!
0b!
1g!
0e!
0j!
0h!
1m!
0k!
1n!
#630000
0!
0Q
0S
#635000
1!
1Q
1S
1o!
0l!
0i!
0f!
0c!
0`!
0^!
0p!
0m!
1j!
0g!
1d!
0a!
0n!
1k!
1h!
1e!
1b!
1]!
1p!
1q!
1n!
0k!
0h!
0e!
0b!
0q!
#640000
0!
0Q
0S
#645000
1!
1Q
1S
1^!
1_!
0]!
#650000
0!
0Q
0S
#655000
1!
1Q
1S
1`!
0^!
1]!
#660000
0!
0Q
0S
#665000
1!
1Q
1S
1^!
1a!
0_!
0]!
1b!
#670000
0!
0Q
0S
#675000
1!
1Q
1S
1c!
0`!
0^!
0d!
0a!
0b!
1]!
1d!
1e!
1b!
0e!
#680000
0!
0Q
0S
#685000
1!
1Q
1S
1^!
1_!
0]!
#690000
0!
0Q
0S
#695000
1!
1Q
1S
1`!
0^!
1]!
#700000
0!
0Q
0S
#705000
1!
1Q
1S
1^!
1a!
0_!
0]!
0d!
0b!
1e!
#710000
0!
0Q
0S
#715000
1!
1Q
1S
1f!
0c!
0`!
0^!
1g!
1d!
0a!
0e!
1b!
1]!
0g!
1h!
1e!
0b!
0h!
#720000
0!
0Q
0S
#725000
1!
1Q
1S
1^!
1_!
0]!
#730000
0!
0Q
0S
#735000
1!
1Q
1S
1`!
0^!
1]!
#740000
0!
0Q
0S
#745000
1!
1Q
1S
1^!
1a!
0_!
0]!
1b!
#750000
0!
0Q
0S
#755000
1!
1Q
1S
1c!
0`!
0^!
0d!
0a!
0b!
1]!
1g!
1d!
0e!
1b!
0g!
1h!
1e!
0h!
#760000
0!
0Q
0S
#765000
1!
1Q
1S
1^!
1_!
0]!
#770000
0!
0Q
0S
#775000
1!
1Q
1S
1`!
0^!
1]!
#780000
0!
0Q
0S
#785000
1!
1Q
1S
1^!
1a!
0_!
0]!
0d!
0b!
1g!
0e!
1h!
#790000
0!
0Q
0S
#795000
1!
1Q
1S
1i!
0f!
0c!
0`!
0^!
0j!
0g!
1d!
0a!
0h!
1e!
1b!
1]!
1j!
1k!
1h!
0e!
0b!
0k!
#800000
0!
0Q
0S
#805000
1!
1Q
1S
1^!
1_!
0]!
#810000
0!
0Q
0S
#815000
1!
1Q
1S
1`!
0^!
1]!
#820000
0!
0Q
0S
#825000
1!
1Q
1S
1^!
1a!
0_!
0]!
1b!
#830000
0!
0Q
0S
#835000
1!
1Q
1S
1c!
0`!
0^!
0d!
0a!
0b!
1]!
1d!
1e!
1b!
0e!
#840000
0!
0Q
0S
#845000
1!
1Q
1S
1^!
1_!
0]!
#850000
0!
0Q
0S
#855000
1!
1Q
1S
1`!
0^!
1]!
#860000
0!
0Q
0S
#865000
1!
1Q
1S
1^!
1a!
0_!
0]!
0d!
0b!
1e!
#870000
0!
0Q
0S
#875000
1!
1Q
1S
1f!
0c!
0`!
0^!
1g!
1d!
0a!
0e!
1b!
1]!
0j!
0g!
0h!
1e!
0b!
1j!
1k!
1h!
0k!
#880000
0!
0Q
0S
#885000
1!
1Q
1S
1^!
1_!
0]!
#890000
0!
0Q
0S
#895000
1!
1Q
1S
1`!
0^!
1]!
#900000
0!
0Q
0S
#905000
1!
1Q
1S
1^!
1a!
0_!
0]!
1b!
#910000
0!
0Q
0S
#915000
1!
1Q
1S
1c!
0`!
0^!
0d!
0a!
0b!
1]!
1g!
1d!
0e!
1b!
0j!
0g!
0h!
1e!
1j!
1k!
1h!
0k!
#920000
0!
0Q
0S
#925000
1!
1Q
1S
1^!
1_!
0]!
#930000
0!
0Q
0S
#935000
1!
1Q
1S
1`!
0^!
1]!
#940000
0!
0Q
0S
#945000
1!
1Q
1S
1^!
1a!
0_!
0]!
0d!
0b!
1g!
0e!
0j!
0h!
1k!
#950000
0!
0Q
0S
